[
{
  "model": "sitetree.tree",
  "pk": 1,
  "fields": {
    "title": "main",
    "alias": "main"
  }
},
{
  "model": "sitetree.treeitem",
  "pk": 1,
  "fields": {
    "title": "Home",
    "hint": "",
    "url": "/",
    "urlaspattern": false,
    "tree": 1,
    "hidden": false,
    "alias": null,
    "description": "",
    "inmenu": true,
    "inbreadcrumbs": true,
    "insitetree": true,
    "access_loggedin": false,
    "access_guest": false,
    "access_restricted": false,
    "access_perm_type": 1,
    "parent": null,
    "sort_order": 1,
    "access_permissions": []
  }
},
{
  "model": "sitetree.treeitem",
  "pk": 2,
  "fields": {
    "title": "About",
    "hint": "",
    "url": "#",
    "urlaspattern": false,
    "tree": 1,
    "hidden": false,
    "alias": null,
    "description": "",
    "inmenu": true,
    "inbreadcrumbs": true,
    "insitetree": true,
    "access_loggedin": false,
    "access_guest": false,
    "access_restricted": false,
    "access_perm_type": 1,
    "parent": null,
    "sort_order": 2,
    "access_permissions": []
  }
},
{
  "model": "sitetree.treeitem",
  "pk": 3,
  "fields": {
    "title": "Programme",
    "hint": "",
    "url": "#",
    "urlaspattern": false,
    "tree": 1,
    "hidden": false,
    "alias": null,
    "description": "",
    "inmenu": true,
    "inbreadcrumbs": true,
    "insitetree": true,
    "access_loggedin": false,
    "access_guest": false,
    "access_restricted": false,
    "access_perm_type": 1,
    "parent": null,
    "sort_order": 5,
    "access_permissions": []
  }
},
{
  "model": "sitetree.treeitem",
  "pk": 4,
  "fields": {
    "title": "Sponsors",
    "hint": "",
    "url": "/sponsors/",
    "urlaspattern": false,
    "tree": 1,
    "hidden": false,
    "alias": null,
    "description": "",
    "inmenu": true,
    "inbreadcrumbs": true,
    "insitetree": true,
    "access_loggedin": false,
    "access_guest": false,
    "access_restricted": false,
    "access_perm_type": 1,
    "parent": null,
    "sort_order": 8,
    "access_permissions": []
  }
},
{
  "model": "sitetree.treeitem",
  "pk": 5,
  "fields": {
    "title": "News",
    "hint": "",
    "url": "/news/",
    "urlaspattern": false,
    "tree": 1,
    "hidden": false,
    "alias": null,
    "description": "",
    "inmenu": true,
    "inbreadcrumbs": true,
    "insitetree": true,
    "access_loggedin": false,
    "access_guest": false,
    "access_restricted": false,
    "access_perm_type": 1,
    "parent": null,
    "sort_order": 3,
    "access_permissions": []
  }
},
{
  "model": "sitetree.treeitem",
  "pk": 6,
  "fields": {
    "title": "About Everything Open",
    "hint": "",
    "url": "/about/",
    "urlaspattern": false,
    "tree": 1,
    "hidden": false,
    "alias": null,
    "description": "",
    "inmenu": true,
    "inbreadcrumbs": true,
    "insitetree": true,
    "access_loggedin": false,
    "access_guest": false,
    "access_restricted": false,
    "access_perm_type": 1,
    "parent": 2,
    "sort_order": 6,
    "access_permissions": []
  }
},
{
  "model": "sitetree.treeitem",
  "pk": 7,
  "fields": {
    "title": "Location",
    "hint": "",
    "url": "/about/location/",
    "urlaspattern": false,
    "tree": 1,
    "hidden": false,
    "alias": null,
    "description": "",
    "inmenu": true,
    "inbreadcrumbs": true,
    "insitetree": true,
    "access_loggedin": false,
    "access_guest": false,
    "access_restricted": false,
    "access_perm_type": 1,
    "parent": 2,
    "sort_order": 7,
    "access_permissions": []
  }
},
{
  "model": "sitetree.treeitem",
  "pk": 8,
  "fields": {
    "title": "Attend",
    "hint": "",
    "url": "#",
    "urlaspattern": false,
    "tree": 1,
    "hidden": false,
    "alias": null,
    "description": "",
    "inmenu": true,
    "inbreadcrumbs": true,
    "insitetree": true,
    "access_loggedin": false,
    "access_guest": false,
    "access_restricted": false,
    "access_perm_type": 1,
    "parent": null,
    "sort_order": 4,
    "access_permissions": []
  }
},
{
  "model": "sitetree.treeitem",
  "pk": 9,
  "fields": {
    "title": "Dashboard",
    "hint": "",
    "url": "/dashboard",
    "urlaspattern": false,
    "tree": 1,
    "hidden": false,
    "alias": null,
    "description": "",
    "inmenu": true,
    "inbreadcrumbs": true,
    "insitetree": true,
    "access_loggedin": false,
    "access_guest": false,
    "access_restricted": false,
    "access_perm_type": 1,
    "parent": 8,
    "sort_order": 9,
    "access_permissions": []
  }
},
{
  "model": "sitetree.treeitem",
  "pk": 10,
  "fields": {
    "title": "Code of Conduct",
    "hint": "",
    "url": "/attend/code-of-conduct/",
    "urlaspattern": false,
    "tree": 1,
    "hidden": false,
    "alias": null,
    "description": "",
    "inmenu": true,
    "inbreadcrumbs": true,
    "insitetree": true,
    "access_loggedin": false,
    "access_guest": false,
    "access_restricted": false,
    "access_perm_type": 1,
    "parent": 8,
    "sort_order": 22,
    "access_permissions": []
  }
},
{
  "model": "sitetree.treeitem",
  "pk": 11,
  "fields": {
    "title": "Terms and Conditions",
    "hint": "",
    "url": "/attend/terms-and-conditions/",
    "urlaspattern": false,
    "tree": 1,
    "hidden": false,
    "alias": null,
    "description": "",
    "inmenu": true,
    "inbreadcrumbs": true,
    "insitetree": true,
    "access_loggedin": false,
    "access_guest": false,
    "access_restricted": false,
    "access_perm_type": 1,
    "parent": 8,
    "sort_order": 23,
    "access_permissions": []
  }
},
{
  "model": "sitetree.treeitem",
  "pk": 12,
  "fields": {
    "title": "Overview",
    "hint": "",
    "url": "/programme/",
    "urlaspattern": false,
    "tree": 1,
    "hidden": false,
    "alias": null,
    "description": "",
    "inmenu": true,
    "inbreadcrumbs": true,
    "insitetree": true,
    "access_loggedin": false,
    "access_guest": false,
    "access_restricted": false,
    "access_perm_type": 1,
    "parent": 3,
    "sort_order": 12,
    "access_permissions": []
  }
},
{
  "model": "sitetree.treeitem",
  "pk": 13,
  "fields": {
    "title": "Miniconfs",
    "hint": "",
    "url": "/programme/miniconfs/",
    "urlaspattern": false,
    "tree": 1,
    "hidden": false,
    "alias": null,
    "description": "",
    "inmenu": true,
    "inbreadcrumbs": true,
    "insitetree": true,
    "access_loggedin": false,
    "access_guest": false,
    "access_restricted": false,
    "access_perm_type": 1,
    "parent": 3,
    "sort_order": 13,
    "access_permissions": []
  }
},
{
  "model": "sitetree.treeitem",
  "pk": 14,
  "fields": {
    "title": "Sessions",
    "hint": "",
    "url": "/programme/sessions/",
    "urlaspattern": false,
    "tree": 1,
    "hidden": false,
    "alias": null,
    "description": "",
    "inmenu": true,
    "inbreadcrumbs": true,
    "insitetree": true,
    "access_loggedin": false,
    "access_guest": false,
    "access_restricted": false,
    "access_perm_type": 1,
    "parent": 3,
    "sort_order": 14,
    "access_permissions": []
  }
},
{
  "model": "sitetree.treeitem",
  "pk": 15,
  "fields": {
    "title": "Proposals",
    "hint": "",
    "url": "/programme/proposals/",
    "urlaspattern": false,
    "tree": 1,
    "hidden": false,
    "alias": null,
    "description": "",
    "inmenu": true,
    "inbreadcrumbs": true,
    "insitetree": true,
    "access_loggedin": false,
    "access_guest": false,
    "access_restricted": false,
    "access_perm_type": 1,
    "parent": 3,
    "sort_order": 15,
    "access_permissions": []
  }
},
{
  "model": "sitetree.treeitem",
  "pk": 16,
  "fields": {
    "title": "Admin",
    "hint": "",
    "url": "#",
    "urlaspattern": false,
    "tree": 1,
    "hidden": false,
    "alias": null,
    "description": "",
    "inmenu": true,
    "inbreadcrumbs": true,
    "insitetree": true,
    "access_loggedin": false,
    "access_guest": false,
    "access_restricted": true,
    "access_perm_type": 1,
    "parent": null,
    "sort_order": 16,
    "access_permissions": [
      52,
      19
    ]
  }
},
{
  "model": "sitetree.treeitem",
  "pk": 17,
  "fields": {
    "title": "django admin",
    "hint": "",
    "url": "/admin",
    "urlaspattern": false,
    "tree": 1,
    "hidden": false,
    "alias": null,
    "description": "",
    "inmenu": true,
    "inbreadcrumbs": true,
    "insitetree": true,
    "access_loggedin": false,
    "access_guest": false,
    "access_restricted": true,
    "access_perm_type": 1,
    "parent": 16,
    "sort_order": 17,
    "access_permissions": [
      52
    ]
  }
},
{
  "model": "sitetree.treeitem",
  "pk": 18,
  "fields": {
    "title": "Ticket Reports",
    "hint": "",
    "url": "/tickets/reports/",
    "urlaspattern": false,
    "tree": 1,
    "hidden": false,
    "alias": null,
    "description": "",
    "inmenu": true,
    "inbreadcrumbs": true,
    "insitetree": true,
    "access_loggedin": false,
    "access_guest": false,
    "access_restricted": true,
    "access_perm_type": 1,
    "parent": 16,
    "sort_order": 18,
    "access_permissions": [
      52
    ]
  }
},
{
  "model": "sitetree.treeitem",
  "pk": 19,
  "fields": {
    "title": "Schedule Edit",
    "hint": "",
    "url": "/schedule/edit",
    "urlaspattern": false,
    "tree": 1,
    "hidden": false,
    "alias": null,
    "description": "",
    "inmenu": true,
    "inbreadcrumbs": true,
    "insitetree": true,
    "access_loggedin": false,
    "access_guest": false,
    "access_restricted": true,
    "access_perm_type": 1,
    "parent": 16,
    "sort_order": 19,
    "access_permissions": [
      106,
      107,
      108
    ]
  }
},
{
  "model": "sitetree.treeitem",
  "pk": 20,
  "fields": {
    "title": "Tickets",
    "hint": "",
    "url": "/attend/tickets/",
    "urlaspattern": false,
    "tree": 1,
    "hidden": false,
    "alias": null,
    "description": "",
    "inmenu": true,
    "inbreadcrumbs": true,
    "insitetree": true,
    "access_loggedin": false,
    "access_guest": false,
    "access_restricted": false,
    "access_perm_type": 1,
    "parent": 8,
    "sort_order": 10,
    "access_permissions": []
  }
},
{
  "model": "sitetree.treeitem",
  "pk": 21,
  "fields": {
    "title": "Volunteer",
    "hint": "",
    "url": "/attend/volunteer/",
    "urlaspattern": false,
    "tree": 1,
    "hidden": false,
    "alias": null,
    "description": "",
    "inmenu": true,
    "inbreadcrumbs": true,
    "insitetree": true,
    "access_loggedin": false,
    "access_guest": false,
    "access_restricted": false,
    "access_perm_type": 1,
    "parent": 8,
    "sort_order": 11,
    "access_permissions": []
  }
},
{
  "model": "sitetree.treeitem",
  "pk": 22,
  "fields": {
    "title": "Accommodation",
    "hint": "",
    "url": "/attend/accommodation/",
    "urlaspattern": false,
    "tree": 1,
    "hidden": false,
    "alias": null,
    "description": "",
    "inmenu": true,
    "inbreadcrumbs": true,
    "insitetree": true,
    "access_loggedin": false,
    "access_guest": false,
    "access_restricted": false,
    "access_perm_type": 1,
    "parent": 8,
    "sort_order": 20,
    "access_permissions": []
  }
},
{
  "model": "sitetree.treeitem",
  "pk": 23,
  "fields": {
    "title": "Why should employees attend?",
    "hint": "",
    "url": "/attend/why-should-employees-attend/",
    "urlaspattern": false,
    "tree": 1,
    "hidden": false,
    "alias": null,
    "description": "",
    "inmenu": true,
    "inbreadcrumbs": true,
    "insitetree": true,
    "access_loggedin": false,
    "access_guest": false,
    "access_restricted": false,
    "access_perm_type": 1,
    "parent": 8,
    "sort_order": 21,
    "access_permissions": []
  }
}
]
